{
  "status": "ok",
  "total_hits": 562,
  "page": 1,
  "total_pages": 57,
  "page_size": 10,
  "articles": [
    {
      "summary": "Skip to main content World + 10 more COVID-19 pandemic\u2502DG ECHO Daily Map\u250220/08/2020 Download map (PDF | 1023.11 KB) World + 11 more Gu\u00eda para la creaci\u00f3n de mecanismos derivaci\u00f3n seguros para personas en situaci\u00f3n de migraci\u00f3n y personas refugiadas World + 14 more Las voces de los ni\u00f1os y ni\u00f1as en tiempos de COVID-19: Activismo permanente de los ni\u00f1os y ni\u00f1as a pesar de los desaf\u00edos personales World Children and young people's voices in the time of the COVID-",
      "country": "NA",
      "author": "European Commission's Directorate-General for European Civil Protection and Humanitarian Aid Operations",
      "link": "https://reliefweb.int/map/world/covid-19-pandemic-dg-echo-daily-map-20082020",
      "language": "es",
      "media": "https://reliefweb.int/sites/reliefweb.int/files/styles/attachment-large/public/resources-pdf-previews/1532084-20200820_Coronavirus_EEAS_world.png?itok=6GbY6jc9",
      "title": "World: COVID-19 pandemic\u2502DG ECHO Daily Map\u250220/08/2020",
      "media_content": null,
      "clean_url": "reliefweb.int",
      "rights": "You should respect the intellectual property rights of the original source. Please contact the source directly if you want to re-use their content.",
      "rank": "2600",
      "topic": "NA",
      "published_date": "2020-08-20 17:19:53",
      "_id": "b26beb1f2a6bd4570ec4d3e14b64b7df",
      "_score": 11.1994
    },
    {
      "summary": "Minecraft ha anunciado un nuevo DLC tem\u00e1tico de Jurassic World que permitir\u00e1 a los jugadores administrar su propio parque tem\u00e1tico de dinosaurios en el juego. El DLC Jurassic World permite a los jugadores crear y entrenar dinosaurios, construir exhibiciones y administrar las operaciones de un divertido parque que est\u00e1 plagado de dinosaurios. Adem\u00e1s, el contenido incluye el parque Jurassic World con ubicaciones de las pel\u00edculas, 21 m\u00e1scaras y m\u00e1s de 60 dinosaurios. B\u00e1sicamente, se trata de un simulador de parques basado en Jurassic World que se puede jugar en Minecraft.",
      "country": "US",
      "author": "Ign",
      "link": "https://es.ign.com/minecraft-pc/166228/news/minecraft-anunciado-un-dlc-de-jurassic-world",
      "language": "es",
      "media": "https://sm.ign.com/t/ign_es/news/j/jurassic-w/jurassic-world-dlc-released-in-minecraft_uv8b.1200.jpg",
      "title": "Minecraft: Anunciado un DLC de Jurassic World",
      "media_content": null,
      "clean_url": "ign.com",
      "rights": "ign.com",
      "rank": "721",
      "topic": "NA",
      "published_date": "2020-08-19 15:40:23",
      "_id": "6b4a7a6df00dac80846a6edf14289a14",
      "_score": 10.837847
    },
    {
      "summary": "\"Jurassic World: Dominion\" est\u00e1 siendo el ejemplo de que el pandemia por coronavirus a\u00fan se puede continuar filmando de forma segura EE.UU.\u2014 A trav\u00e9s de redes sociales se ha dado a conocer que el rodaje de la pel\u00edcula \"Jurassic World: Dominion\" se reanud\u00f3 con todos los protocolos sanitarios. Por su parte, Bryce Dallas Howard, la [\u2026] More The post Muestran c\u00f3mo se filma \"Jurassic World: Dominion\" en plena pandemia appeared first on El Diario de Yucat\u00e1n.",
      "country": "MX",
      "author": "Ali Paulino",
      "link": "https://www.yucatan.com.mx/espectaculos/muestran-como-se-filma-jurassic-world-dominion-en-plena-pandemia",
      "language": "es",
      "media": null,
      "title": "Muestran c\u00f3mo se filma \"Jurassic World: Dominion\" en plena pandemia",
      "media_content": null,
      "clean_url": "yucatan.com.mx",
      "rights": "yucatan.com.mx",
      "rank": "31408",
      "topic": "news",
      "published_date": "2020-08-15 21:39:44",
      "_id": "2b51b9c603608827680366a95dd49da4",
      "_score": 10.534746
    },
    {
      "summary": "Revelan detalles de la filmaci\u00f3n de Jurassic World Redacci\u00f3n\u00a0 La nueva pel\u00edcula de\u00a0\u2018Jurassic World: Dominion', ha reanudado su producci\u00f3n despu\u00e9s de haber sido suspendida debido a la pandemia mundial, y como adelanto han sido compartido nuevas im\u00e1genes del set. Las nuevas fotos fueron compartidas como parte de un art\u00edculo de\u00a0The New York Times, llevando a [\u2026] La entrada As\u00ed filman \u2018Jurassic World: Dominion' se public\u00f3 primero en AM Quer\u00e9taro.",
      "country": "NA",
      "author": "Estefany Gonz\u00e1lez",
      "link": "https://amqueretaro.com/viral/2020/08/15/asi-filman-jurassic-world-dominion/",
      "language": "es",
      "media": null,
      "title": "As\u00ed filman \u2018Jurassic World: Dominion'",
      "media_content": null,
      "clean_url": "amqueretaro.com",
      "rights": "amqueretaro.com",
      "rank": "219969",
      "topic": "news",
      "published_date": "2020-08-15 23:18:21",
      "_id": "131b194454d6822193c36fef16c66a8a",
      "_score": 10.304507
    },
    {
      "summary": "Este 2020, Ecuador alcanz\u00f3 42 nominaciones en distintas categor\u00edas en la vig\u00e9sima s\u00e9ptima edici\u00f3n en Sudam\u00e9rica de los World Travel Awards, considerados los 'Oscar del Turismo'.",
      "country": "EC",
      "author": "Redacci\u00f3n Elcomercio.com",
      "link": "http://www.elcomercio.com/tendencias/ecuador-nominaciones-world-travel-awards.html",
      "language": "es",
      "media": null,
      "title": "Ecuador obtiene 42 nominaciones en los World Travel Awards; las votaciones son hasta el 1 de septiembre",
      "media_content": null,
      "clean_url": "elcomercio.com",
      "rights": "elcomercio.com",
      "rank": "10992",
      "topic": "news",
      "published_date": "2020-08-17 17:18:00",
      "_id": "743cd8e3c4e7beea7aca53df7a7b0c74",
      "_score": 10.174766
    },
    {
      "summary": "Los festejos por el d\u00e9cimo aniversario de 'Scott Pilgrim vs. the World' contin\u00faan. La entrada \u00a1Checa la incre\u00edble reedici\u00f3n en vinilo del soundtrack de \u2018Scott Pilgrim vs. the World\u2019! aparece primero en LifeBoxset.",
      "country": "NA",
      "author": "Marisol Mart\u00ednez",
      "link": "https://www.lifeboxset.com/nota/226796/checa-la-increible-reedicion-en-vinilo-del-sountrack-de-scott-pilgrim-vs-the-world/",
      "language": "es",
      "media": null,
      "title": "\u00a1Checa la incre\u00edble reedici\u00f3n en vinilo del soundtrack de \u2018Scott Pilgrim vs. the World'!",
      "media_content": null,
      "clean_url": "lifeboxset.com",
      "rights": "lifeboxset.com",
      "rank": "394743",
      "topic": "music",
      "published_date": "2020-08-17 16:35:18",
      "_id": "d7af050432dd7edb4a2e0294dc8a6666",
      "_score": 10.102494
    },
    {
      "summary": "Desde Nintendo han anunciado hoy que ma\u00f1ana 18 de agosto\u00a0se emitir\u00e1 un nuevo Indie World a las 18:00 (hora espa\u00f1ola peninsular) / 09:00 PT / 00:00 ET\u00a0con informaci\u00f3n de los pr\u00f3ximos juegos Indies que llegar\u00e1n a Nintendo Switch. La presentaci\u00f3n podr\u00e1 verse aqu\u00ed o aqu\u00ed.",
      "country": "RU",
      "author": "news+feed@crunchyroll.com",
      "link": "https://www.crunchyroll.com/anime-news/2020/08/17-1/nintendo-celebrar-maana-una-nueva-presentacin-indie-world",
      "language": "es",
      "media": "https://img1.ak.crunchyroll.com/i/spire4/31974be48c8add703bd9fd40c1d388821597700406_thumb.jpg",
      "title": "Nintendo celebrar\u00e1 ma\u00f1ana una nueva presentaci\u00f3n Indie World",
      "media_content": null,
      "clean_url": "crunchyroll.com",
      "rights": "Copyright \u00a9 2020 Ellation Inc. All rights reserved.",
      "rank": "3035",
      "topic": "entertainment",
      "published_date": "2020-08-17 21:40:16",
      "_id": "e23d82df7ef76041807dfc1eff9dcd66",
      "_score": 10.094182
    },
    {
      "summary": "Estos son los 9 anuncios m\u00e1s importante del Nintendo Indie World Showcase.",
      "country": "NA",
      "author": "La Verdad",
      "link": "https://laverdadnoticias.com/tecnologia/Anuncios-mas-IMPORTANTES-del-Nintendo-Indie-World-Showcase-20200818-0163.html",
      "language": "es",
      "media": "https://laverdadnoticias.com/__export/1597777066035/sites/laverdad/img/2020/08/18/ihndie_world_nintendo.jpg_1187572215.jpg",
      "title": "Anuncios m\u00e1s IMPORTANTES del Nintendo Indie World Showcase",
      "media_content": "https://laverdadnoticias.com/__export/1597777066035/sites/laverdad/img/2020/08/18/ihndie_world_nintendo.jpg_1187572215.jpg",
      "clean_url": "laverdadnoticias.com",
      "rights": "laverdadnoticias.com",
      "rank": "62823",
      "topic": "news",
      "published_date": "2020-08-18 18:57:47",
      "_id": "5b1b627fffeb32d184531b26b68a2266",
      "_score": 10.062418
    },
    {
      "summary": "la voz a coru\u00f1a 14/08/2020 16:57 h La ciudad de A Coru\u00f1a ha sido propuesta como candidata a ser la \u00abciudad de la felicidad\u00bb en los premios World Happiness Awards. Estos galardones son una iniciativa de World Happiness Fest y buscan dar reconocimiento a acciones, ideas y proyectos \u00abliderados desde el coraz\u00f3n\u00bb, explican los responsables. Adem\u00e1s se puede nominar durante todo el a\u00f1o y los organizadores anuncian a los ganadores de los premios cuatro veces al a\u00f1o en las diferentes categor\u00edas. Se realizan siempre el d\u00eda 20 en los meses de septiembre, diciembre, marzo y junio.",
      "country": "ES",
      "author": "la voz",
      "link": "https://www.lavozdegalicia.es/noticia/coruna/coruna/2020/08/14/coruna-opta-ciudad-felicidad-premios-world-happiness-award/00031597415415420594424.htm",
      "language": "es",
      "media": "https://www.lavozdegalicia.es/default/2020/08/14/00121597417201975805122/Foto/HG10C3F1_16591.jpg",
      "title": "A Coru\u00f1a opta a ser la \u00abciudad de la felicidad\u00bb en los premios World Happiness Award",
      "media_content": "https://i.avoz.es/sc/960x/default/2020/08/14/00121597417201975805122/Foto/HG10C3F1_16591.jpg",
      "clean_url": "lavozdegalicia.es",
      "rights": "LA VOZ DE GALICIA S.A.",
      "rank": "6753",
      "topic": "NA",
      "published_date": "2020-08-14 14:57:00",
      "_id": "b9e3201731572b067cbef075f8886c4f",
      "_score": 10.03619
    },
    {
      "summary": "El complejo deportivo \"Soccer World\", colindante con el pabell\u00f3n de Perchera-La Bra\u00f1a y construido en el a\u00f1o 2011, centr\u00f3 ayer el debate en una reuni\u00f3n de la Asociaci\u00f3n de Vecinos \"Santiago\" de Nuevo Gij\u00f3n, La Bra\u00f1a y Perchera. Los asistentes...",
      "country": "NA",
      "author": "La Nueva Espa\u00f1a",
      "link": "https://www.lne.es/gijon/2020/08/18/nuevo-gijon-pide-ayuntamiento-gestion/2672196.html?utm_source=rss",
      "language": "es",
      "media": null,
      "title": "Nuevo Gij\u00f3n pide al Ayuntamiento una gesti\u00f3n comunitaria del \"Soccer World\"",
      "media_content": null,
      "clean_url": "lne.es",
      "rights": "Copyright La Nueva Espa\u00f1a",
      "rank": "13209",
      "topic": "NA",
      "published_date": "2020-08-18 01:04:54",
      "_id": "db87b73202527b7b37c3037be25c8d22",
      "_score": 10.030937
    }
  ],
  "user_input": {
    "q": "world",
    "search_in": "title_summary_es",
    "lang": "es",
    "ranked_only": "True",
    "sort_by": "relevancy",
    "from": "2020-08-14 00:00:00",
    "page": 1,
    "size": 10,
    "media": "True"
  }
}
